{
  "content": [
    {
      "id": 1,
      "name": "Tokyo",
      "photo": "https://upload.wikimedia.org/wikipedia/commons/thumb/b/b2/Skyscrapers_of_Shinjuku_2009_January.jpg/500px-Skyscrapers_of_Shinjuku_2009_January.jpg"
    },
    {
      "id": 2,
      "name": "Jakarta",
      "photo": "https://upload.wikimedia.org/wikipedia/commons/thumb/f/f6/Jakarta_Pictures-1.jpg/327px-Jakarta_Pictures-1.jpg"
    },
    {
      "id": 3,
      "name": "Delhi",
      "photo": "https://upload.wikimedia.org/wikipedia/commons/thumb/5/55/IN-DL.svg/439px-IN-DL.svg.png"
    },
    {
      "id": 4,
      "name": "Mumbai",
      "photo": "https://upload.wikimedia.org/wikipedia/commons/thumb/1/14/Mumbai_Skyline_at_Night.jpg/500px-Mumbai_Skyline_at_Night.jpg"
    },
    {
      "id": 5,
      "name": "Manila",
      "photo": "https://upload.wikimedia.org/wikipedia/commons/thumb/0/06/Manila_Cathedral_Facade_at_Sunset.jpg/500px-Manila_Cathedral_Facade_at_Sunset.jpg"
    },
    {
      "id": 6,
      "name": "Shanghai",
      "photo": "https://upload.wikimedia.org/wikipedia/commons/thumb/d/df/Pudong_Shanghai_November_2017_panorama.jpg/500px-Pudong_Shanghai_November_2017_panorama.jpg"
    },
    {
      "id": 7,
      "name": "São Paulo",
      "photo": "https://upload.wikimedia.org/wikipedia/commons/thumb/f/f4/S%C3%A3o_Paulo_GTXDrone_Capture_134.255.jpg/500px-S%C3%A3o_Paulo_GTXDrone_Capture_134.255.jpg"
    },
    {
      "id": 8,
      "name": "Seoul",
      "photo": "https://upload.wikimedia.org/wikipedia/commons/thumb/2/2e/%EB%8D%95%EC%88%98%EA%B6%81_2011%EB%85%84_11%EC%9B%94_%EB%8C%80%ED%95%9C%EB%AF%BC%EA%B5%AD_%EC%84%9C%EC%9A%B8%ED%8A%B9%EB%B3%84%EC%8B%9C_%EB%AA%85%EC%86%8C_%28Seoul_best_attractions%29_%EC%82%AC%EB%B3%B8_-1S6O1452.jpg/500px-%EB%8D%95%EC%88%98%EA%B6%81_2011%EB%85%84_11%EC%9B%94_%EB%8C%80%ED%95%9C%EB%AF%BC%EA%B5%AD_%EC%84%9C%EC%9A%B8%ED%8A%B9%EB%B3%84%EC%8B%9C_%EB%AA%85%EC%86%8C_%28Seoul_best_attractions%29_%EC%82%AC%EB%B3%B8_-1S6O1452.jpg"
    },
    {
      "id": 9,
      "name": "Mexico City",
      "photo": "https://upload.wikimedia.org/wikipedia/commons/thumb/1/15/Montaje.Ciudad_de_M%C3%A9xico.jpg/250px-Montaje.Ciudad_de_M%C3%A9xico.jpg"
    },
    {
      "id": 10,
      "name": "Guangzhou",
      "photo": "https://upload.wikimedia.org/wikipedia/commons/thumb/9/93/Guangzhou_Twin_Towers.jpg/500px-Guangzhou_Twin_Towers.jpg"
    },
    {
      "id": 11,
      "name": "Beijing",
      "photo": "https://upload.wikimedia.org/wikipedia/commons/thumb/9/91/Tiananmen_Gate.jpg/500px-Tiananmen_Gate.jpg"
    },
    {
      "id": 12,
      "name": "Cairo",
      "photo": "https://upload.wikimedia.org/wikipedia/commons/thumb/d/d9/Cairo-Nile-2020%281%29.jpg/500px-Cairo-Nile-2020%281%29.jpg"
    },
    {
      "id": 13,
      "name": "Moscow",
      "photo": "https://upload.wikimedia.org/wikipedia/commons/thumb/0/01/Business_Centre_of_Moscow_2.jpg/500px-Business_Centre_of_Moscow_2.jpg"
    },
    {
      "id": 14,
      "name": "Bangkok",
      "photo": "https://upload.wikimedia.org/wikipedia/commons/thumb/a/af/Bangkok_Montage_2021.jpg/375px-Bangkok_Montage_2021.jpg"
    },
    {
      "id": 15,
      "name": "Buenos Aires",
      "photo": "https://upload.wikimedia.org/wikipedia/commons/thumb/9/92/Port_skyline_%26_Women%27s_Bridge.jpg/500px-Port_skyline_%26_Women%27s_Bridge.jpg"
    },
    {
      "id": 16,
      "name": "Shenzhen",
      "photo": "https://upload.wikimedia.org/wikipedia/commons/thumb/e/e3/Commercial_area_of_futian_to_east2020.jpg/500px-Commercial_area_of_futian_to_east2020.jpg"
    },
    {
      "id": 17,
      "name": "Dhaka",
      "photo": "https://upload.wikimedia.org/wikipedia/commons/thumb/9/9d/Dhaka_14th_March_%2832624769393%29.jpg/500px-Dhaka_14th_March_%2832624769393%29.jpg"
    },
    {
      "id": 18,
      "name": "Lagos",
      "photo": "https://upload.wikimedia.org/wikipedia/commons/thumb/5/5e/2014_Tinubu_Square_Lagos_Nigeria_14640600637.jpg/500px-2014_Tinubu_Square_Lagos_Nigeria_14640600637.jpg"
    },
    {
      "id": 19,
      "name": "Istanbul",
      "photo": "https://upload.wikimedia.org/wikipedia/commons/thumb/5/53/Bosphorus_Bridge_%28235499411%29.jpeg/500px-Bosphorus_Bridge_%28235499411%29.jpeg"
    },
    {
      "id": 20,
      "name": "Karachi",
      "photo": "https://upload.wikimedia.org/wikipedia/commons/thumb/0/05/Jinnah_Mausoleum_%28cropped%29.JPG/500px-Jinnah_Mausoleum_%28cropped%29.JPG"
    }
  ],
  "pageable": {
    "sort": {
      "empty": false,
      "sorted": true,
      "unsorted": false
    },
    "offset": 0,
    "pageNumber": 0,
    "pageSize": 20,
    "paged": true,
    "unpaged": false
  },
  "last": false,
  "totalPages": 50,
  "totalElements": 1000,
  "size": 20,
  "number": 0,
  "sort": {
    "empty": false,
    "sorted": true,
    "unsorted": false
  },
  "first": true,
  "numberOfElements": 20,
  "empty": false
}